97 23 119
34 56 113
50 50 25
100 2342 183
238 987 179
79 89 111
2380 92834 351
20384 345 279
356 456 134
234 65 128
46 3467 217
4573 753477 509
34564 7544 311
367 356 95
34565 3 311
2 10 20
3 14 20
123 456 144
456 789 171
1234 4567 238
584838 949585 525
111 222 125
333 444 134
68 979 179
876 8 179
8686 8799 216
24356 43576 324
34636 76783 340
18998 39938 324
28495 9485 308
4314 64354 340
432154 65467 449
54356 756765 509
432436 765756 509
3457 7 217
9877 8907 260
4356 3456 238
2341 568457 470
13241 45366 324
4321 543654 470
5646 6456 262
2439 3450 217
2458 4358 238
3459 4529 238
2348 431289 449
13248 43828 324
23484 438281 449
98474 9484 351
999 6849 262
9485 58493 340
8483 3892 262
3494 49382 324
4829 38184 324
1 566 144
77 999 179
457 6954 262
585 86849 351
5867 57483 340
48 54832 340
6757 57349 340
345 75943 340
93485 43729 351
85678 432 351
234 57489 340
10 12 15
66 90 116
70 400 144
300 600 144
234 9 128
12 789 171
13 678 145
32 67 113
56 78 116
23 45 112
56 67 108
67 78 116
88 99 119
100 203 125
10000 20000 279
30218 47281 324
19382 19284 212
4821 3457 238
67785 64723 312
45085 99880 351
838 92919 351
674334 48328 509
23489 8975 279
473 5674 238
69 2795 209
57495 6049 340
4857 58934 340
45897 6822 324
6895 576 262
19 291 128
10 495 144
38291 102 324
4098 7684 262
1024 2048 182
1267 890 182
843 85943 351
84593 893 351
12385 2 268
4 788 171
2839 48392 324
23489 84392 351
8594 58493 340
81893 5894 351
290 49 128
2309 90 183
87 32 116
79 432 144
57 90 116
89347 58409 351
3485 90 217
38 6509 262
845 68540 340
34457 8990 311
43 78 116
4598 6859 262
457 80 144
